"","Jahr","HochTiefbauWert"
"12","1991","128,7"
"13","1992","145,2"
"14","1993","155,6"
"15","1994","169,9"
"16","1995","165,1"
"17","1996","152,0"
"18","1997","139,2"
"19","1998","138,7"
"20","1999","135,9"
"21","2000","124,0"
"22","2001","117,2"
"23","2002","109,9"
"24","2003","98,1"
"25","2004","92,5"
"26","2005","91,6"
"27","2006","96,3"
"28","2007","104,4"
"29","2008","104,1"
"30","2009","98,4"
"31","2010","100,0"
"32","2011","107,3"
"33","2012","114,6"
